^D:\SIMONE\DESKTOP\2 - INFORMATICA GRAFICA\PROGETTO\APPLICATION\IG_GAME\IG_GAME\DEBUG\ANIMATION.OBJ|D:\SIMONE\DESKTOP\2 - INFORMATICA GRAFICA\PROGETTO\APPLICATION\IG_GAME\IG_GAME\DEBUG\CAMERA.OBJ|D:\SIMONE\DESKTOP\2 - INFORMATICA GRAFICA\PROGETTO\APPLICATION\IG_GAME\IG_GAME\DEBUG\GAME.OBJ|D:\SIMONE\DESKTOP\2 - INFORMATICA GRAFICA\PROGETTO\APPLICATION\IG_GAME\IG_GAME\DEBUG\GAMEOBJBB.OBJ|D:\SIMONE\DESKTOP\2 - INFORMATICA GRAFICA\PROGETTO\APPLICATION\IG_GAME\IG_GAME\DEBUG\GAMEOBJBB_SKELETALANIMATION.OBJ|D:\SIMONE\DESKTOP\2 - INFORMATICA GRAFICA\PROGETTO\APPLICATION\IG_GAME\IG_GAME\DEBUG\GAMEOBJCIRCULARBB.OBJ|D:\SIMONE\DESKTOP\2 - INFORMATICA GRAFICA\PROGETTO\APPLICATION\IG_GAME\IG_GAME\DEBUG\GAMEOBJECT.OBJ|D:\SIMONE\DESKTOP\2 - INFORMATICA GRAFICA\PROGETTO\APPLICATION\IG_GAME\IG_GAME\DEBUG\GAMEOBJINTWALL.OBJ|D:\SIMONE\DESKTOP\2 - INFORMATICA GRAFICA\PROGETTO\APPLICATION\IG_GAME\IG_GAME\DEBUG\GAMEOBJPROJECTILE.OBJ|D:\SIMONE\DESKTOP\2 - INFORMATICA GRAFICA\PROGETTO\APPLICATION\IG_GAME\IG_GAME\DEBUG\GAMEOBJSTRWALL.OBJ|D:\SIMONE\DESKTOP\2 - INFORMATICA GRAFICA\PROGETTO\APPLICATION\IG_GAME\IG_GAME\DEBUG\MAIN.OBJ|D:\SIMONE\DESKTOP\2 - INFORMATICA GRAFICA\PROGETTO\APPLICATION\IG_GAME\IG_GAME\DEBUG\SCENELOADER.OBJ|D:\SIMONE\DESKTOP\2 - INFORMATICA GRAFICA\PROGETTO\APPLICATION\IG_GAME\IG_GAME\DEBUG\SOUNDHANDLER.OBJ
D:\SIMONE\DESKTOP\2 - INFORMATICA GRAFICA\PROGETTO\APPLICATION\IG_GAME\DEBUG\IG_GAME.ILK
D:\SIMONE\DESKTOP\2 - INFORMATICA GRAFICA\PROGETTO\APPLICATION\IG_GAME\DEBUG\IG_GAME.EXE
D:\SIMONE\DESKTOP\2 - INFORMATICA GRAFICA\PROGETTO\APPLICATION\IG_GAME\DEBUG\IG_GAME.PDB
