^D:\SIMONE\DROPBOX\PROGETTOINFGRAFICA\APPLICATION\IG_GAME\IG_GAME\CAMERA.CPP|D:\SIMONE\DROPBOX\PROGETTOINFGRAFICA\APPLICATION\IG_GAME\IG_GAME\GAME.CPP|D:\SIMONE\DROPBOX\PROGETTOINFGRAFICA\APPLICATION\IG_GAME\IG_GAME\GAMEOBJBB.CPP|D:\SIMONE\DROPBOX\PROGETTOINFGRAFICA\APPLICATION\IG_GAME\IG_GAME\GAMEOBJCIRCULARBB.CPP|D:\SIMONE\DROPBOX\PROGETTOINFGRAFICA\APPLICATION\IG_GAME\IG_GAME\GAMEOBJECT.CPP|D:\SIMONE\DROPBOX\PROGETTOINFGRAFICA\APPLICATION\IG_GAME\IG_GAME\GAMEOBJINTWALL.CPP|D:\SIMONE\DROPBOX\PROGETTOINFGRAFICA\APPLICATION\IG_GAME\IG_GAME\GAMEOBJPROJECTILE.CPP|D:\SIMONE\DROPBOX\PROGETTOINFGRAFICA\APPLICATION\IG_GAME\IG_GAME\GAMEOBJSTRWALL.CPP|D:\SIMONE\DROPBOX\PROGETTOINFGRAFICA\APPLICATION\IG_GAME\IG_GAME\MAIN.CPP|D:\SIMONE\DROPBOX\PROGETTOINFGRAFICA\APPLICATION\IG_GAME\IG_GAME\RESOURCELOADER.CPP
D:\SIMONE\DROPBOX\PROGETTOINFGRAFICA\APPLICATION\IG_GAME\IG_GAME\X64\DEBUG\VC140.PDB
D:\SIMONE\DROPBOX\PROGETTOINFGRAFICA\APPLICATION\IG_GAME\IG_GAME\X64\DEBUG\VC140.IDB
^D:\SIMONE\DROPBOX\PROGETTOINFGRAFICA\APPLICATION\IG_GAME\IG_GAME\CAMERA.CPP
D:\SIMONE\DROPBOX\PROGETTOINFGRAFICA\APPLICATION\IG_GAME\IG_GAME\X64\DEBUG\VC140.PDB
^D:\SIMONE\DROPBOX\PROGETTOINFGRAFICA\APPLICATION\IG_GAME\IG_GAME\GAME.CPP
D:\SIMONE\DROPBOX\PROGETTOINFGRAFICA\APPLICATION\IG_GAME\IG_GAME\X64\DEBUG\VC140.PDB
^D:\SIMONE\DROPBOX\PROGETTOINFGRAFICA\APPLICATION\IG_GAME\IG_GAME\GAMEOBJBB.CPP
D:\SIMONE\DROPBOX\PROGETTOINFGRAFICA\APPLICATION\IG_GAME\IG_GAME\X64\DEBUG\VC140.PDB
^D:\SIMONE\DROPBOX\PROGETTOINFGRAFICA\APPLICATION\IG_GAME\IG_GAME\GAMEOBJCIRCULARBB.CPP
D:\SIMONE\DROPBOX\PROGETTOINFGRAFICA\APPLICATION\IG_GAME\IG_GAME\X64\DEBUG\VC140.PDB
^D:\SIMONE\DROPBOX\PROGETTOINFGRAFICA\APPLICATION\IG_GAME\IG_GAME\GAMEOBJECT.CPP
D:\SIMONE\DROPBOX\PROGETTOINFGRAFICA\APPLICATION\IG_GAME\IG_GAME\X64\DEBUG\VC140.PDB
^D:\SIMONE\DROPBOX\PROGETTOINFGRAFICA\APPLICATION\IG_GAME\IG_GAME\GAMEOBJINTWALL.CPP
D:\SIMONE\DROPBOX\PROGETTOINFGRAFICA\APPLICATION\IG_GAME\IG_GAME\X64\DEBUG\VC140.PDB
^D:\SIMONE\DROPBOX\PROGETTOINFGRAFICA\APPLICATION\IG_GAME\IG_GAME\GAMEOBJPROJECTILE.CPP
D:\SIMONE\DROPBOX\PROGETTOINFGRAFICA\APPLICATION\IG_GAME\IG_GAME\X64\DEBUG\VC140.PDB
^D:\SIMONE\DROPBOX\PROGETTOINFGRAFICA\APPLICATION\IG_GAME\IG_GAME\GAMEOBJSTRWALL.CPP
D:\SIMONE\DROPBOX\PROGETTOINFGRAFICA\APPLICATION\IG_GAME\IG_GAME\X64\DEBUG\VC140.PDB
^D:\SIMONE\DROPBOX\PROGETTOINFGRAFICA\APPLICATION\IG_GAME\IG_GAME\MAIN.CPP
D:\SIMONE\DROPBOX\PROGETTOINFGRAFICA\APPLICATION\IG_GAME\IG_GAME\X64\DEBUG\VC140.PDB
^D:\SIMONE\DROPBOX\PROGETTOINFGRAFICA\APPLICATION\IG_GAME\IG_GAME\RESOURCELOADER.CPP
D:\SIMONE\DROPBOX\PROGETTOINFGRAFICA\APPLICATION\IG_GAME\IG_GAME\X64\DEBUG\VC140.PDB
